{
    "_id": "BD_PY_0077",
    "rel-link_id": "5ee9250c761cf87371cf32bb",
    "question_name": "html_search",
    "question_path": "performance/Python/html_search",
    "question_type": "performance_dev",
    "topic": "Python",
    "disabled": false,
    "provisioned": 0,
    "attempts": 0,
    "passes": 0,
    "failures": 0,
    "question": {
        "filepath": "performance/Python/html_search/testfile.py"
    },
    "support_files": [
        "performance/Python/html_search/data.py"
    ],
    "tests": [
        {
            "filepath": "performance/Python/html_search/runtests.py"
        }
    ],
    "solution": "performance/Python/html_search/Solution/testfile.py",
    "dependencies": {
        "libraries": [],
        "req_software": [
            "Python 3.7"
        ]
    }
}