{
    "_id": "BD_PY_0066",
    "rel-link_id": "5ee9250c761cf87371cf32c6",
    "question_name": "count_time",
    "question_path": "performance/Python/count_time",
    "question_type": "performance_dev",
    "topic": "Python",
    "disabled": false,
    "provisioned": 0,
    "attempts": 0,
    "passes": 0,
    "failures": 0,
    "question": {
        "filepath": "performance/Python/count_time/testfile.py"
    },
    "support_files": [
        "performance/Python/app_count_time/empty.txt",
        "performance/Python/app_count_time/mainList.txt",
        "performance/Python/app_count_time/smallList.txt"
    ],
    "tests": [
        {
            "filepath": "performance/Python/count_time/runtests.py"
        }
    ],
    "solution": "performance/Python/count_time/Solution/testfile.py",
    "dependencies": {
        "libraries": [],
        "req_software": [
            "Python 3.7"
        ]
    }
}